{
    "orders": {
        "UCB1MultiMostSharedOrder": {},
        "UCB1MostSharedOrder": {},
        "UCB1RandomOrder": {},
        "UCB1MultiRandomOrder": {},
        "EGreedyMultiMostSharedOrder": {
            "e": 0.1
        },
        "EGreedyMostSharedOrder": {
            "e": 0.1
        },
        "EGreedyRandomOrder": {
            "e": 0.1
        },
        "EGreedyMultiRandomOrder": {
            "e": 0.1
        },
        "ThompsonSamplingRandomOrder": {},
        "ThompsonSamplingMostSharedOrder": {},
        "ThompsonSamplingMultiRandomOrder": {},
        "ThompsonSamplingMultiMostSharedOrder": {},
        "KLUCBRandomOrder": {},
        "KLUCBMostSharedOrder": {},
        "KLUCBMultiRandomOrder": {},
        "KLUCBMultiMostSharedOrder": {}
    },
    "run_params": {
        "host_env_file": "otx-xforce-vt-v22-fixed.p",
        "attack_iterations": 2,
        "budgets": [
            3000
        ],
        "rewards": [
            1280
        ],
        "thresholds": [
            1.0
        ],
        "fp": [
            0.01
        ],
        "fn": [
            0.1
        ],
        "niocs_lower_bound": 0,
        "niocs_upper_bound": 50000,
        "create_fp_fn_results": false,
        "create_attacks_results": false,
        "create_budget_results": false,
        "create_rank_results": true,
        "run_type": "budgets",
        "load_pickle_env": true,
        "normalize_results": false,
        "remove_occuring_attack": false,
        "early_occuring_attack_stop": true
    },
    "attacks": {},
    "credentials": {
        "host": "localhost",
        "port": 11004,
        "user": "neo4j",
        "password": "q1w2e3"
    }
}